%YAML 1.1
%TAG !u! tag:unity3d.com,2011:
--- !u!74 &7400000
AnimationClip:
  m_ObjectHideFlags: 0
  m_PrefabParentObject: {fileID: 0}
  m_PrefabInternal: {fileID: 0}
  m_Name: DenguirMan
  serializedVersion: 6
  m_Legacy: 0
  m_Compressed: 0
  m_UseHighQualityCurve: 1
  m_RotationCurves:
  - curve:
      serializedVersion: 2
      m_Curve:
      - time: 0
        value: {x: 0, y: .551937044, z: 0, w: .833885789}
        inSlope: {x: -.0100108068, y: 1.43051138e-05, z: -.0823034048, w: -.000146627412}
        outSlope: {x: -.0100108068, y: 1.43051138e-05, z: -.0823034048, w: -.000146627412}
        tangentMode: 0
      - time: .0333333351
        value: {x: -.000333693577, y: .551937521, z: -.00274344697, w: .833880901}
        inSlope: {x: -.0105135459, y: 2.95042973e-05, z: -.0864351466, w: -.000322759151}
        outSlope: {x: -.0105135459, y: 2.95042973e-05, z: -.0864351466, w: -.000322759151}
        tangentMode: 0
      - time: .0666666701
        value: {x: -.000700903125, y: .551939011, z: -.00576234329, w: .833864272}
        inSlope: {x: -.0113935163, y: 6.34789394e-05, z: -.0936646163, w: -.000711679342}
        outSlope: {x: -.0113935163, y: 6.34789394e-05, z: -.0936646163, w: -.000711679342}
        tangentMode: 0
      - time: .100000009
        value: {x: -.00109326141, y: .551941752, z: -.00898775551, w: .833833456}
        inSlope: {x: -.0120225055, y: .000103712082, z: -.0988259017, w: -.00115782022}
        outSlope: {x: -.0120225055, y: .000103712082, z: -.0988259017, w: -.00115782022}
        tangentMode: 0
      - time: .13333334
        value: {x: -.00150240352, y: .551945925, z: -.0123507371, w: .833787084}
        inSlope: {x: -.0124005657, y: .00014752151, z: -.101918682, w: -.00163346541}
        outSlope: {x: -.0124005657, y: .00014752151, z: -.101918682, w: -.00163346541}
        tangentMode: 0
      - time: .166666672
        value: {x: -.00191996573, y: .551951587, z: -.0157823339, w: .833724558}
        inSlope: {x: -.0125276633, y: .000190436855, z: -.102943122, w: -.00210464024}
        outSlope: {x: -.0125276633, y: .000190436855, z: -.102943122, w: -.00210464024}
        tangentMode: 0
      - time: .200000003
        value: {x: -.00233758101, y: .551958621, z: -.0192136113, w: .833646774}
        inSlope: {x: -.0124036875, y: .000228881865, z: -.101899832, w: -.0025302174}
        outSlope: {x: -.0124036875, y: .000228881865, z: -.101899832, w: -.0025302174}
        tangentMode: 0
      - time: .233333334
        value: {x: -.00274687819, y: .551966846, z: -.022575656, w: .833555877}
        inSlope: {x: -.0120284837, y: .000259280147, z: -.0987897068, w: -.00287890388}
        outSlope: {x: -.0120284837, y: .000259280147, z: -.0987897068, w: -.00287890388}
        tangentMode: 0
      - time: .266666681
        value: {x: -.00313948002, y: .551975906, z: -.025799593, w: .833454847}
        inSlope: {x: -.0114018731, y: .000280737819, z: -.0936140791, w: -.00311493827}
        outSlope: {x: -.0114018731, y: .000280737819, z: -.0936140791, w: -.00311493827}
        tangentMode: 0
      - time: .300000012
        value: {x: -.00350700319, y: .551985562, z: -.0288165957, w: .833348215}
        inSlope: {x: -.0105235362, y: .000289678603, z: -.0863744318, w: -.00320792221}
        outSlope: {x: -.0105235362, y: .000289678603, z: -.0863744318, w: -.00320792221}
        tangentMode: 0
      - time: .333333343
        value: {x: -.00384104904, y: .551995218, z: -.0315578878, w: .833240986}
        inSlope: {x: -.00939329248, y: .000282526045, z: -.0770724416, w: -.00313371443}
        outSlope: {x: -.00939329248, y: .000282526045, z: -.0770724416, w: -.00313371443}
        tangentMode: 0
      - time: .366666675
        value: {x: -.00413322262, y: .552004397, z: -.0339547582, w: .8331393}
        inSlope: {x: -.00801092107, y: .000259280234, z: -.0657093748, w: -.00287264609}
        outSlope: {x: -.00801092107, y: .000259280234, z: -.0657093748, w: -.00287264609}
        tangentMode: 0
      - time: .400000006
        value: {x: -.00437511038, y: .552012503, z: -.0359385125, w: .833049476}
        inSlope: {x: -.006376212, y: .000219047084, z: -.0522861481, w: -.00241756462}
        outSlope: {x: -.006376212, y: .000219047084, z: -.0522861481, w: -.00241756462}
        tangentMode: 0
      - time: .433333337
        value: {x: -.00455830339, y: .552019, z: -.0374405012, w: .832978129}
        inSlope: {x: -.00448911032, y: .000160932555, z: -.0368033201, w: -.00177294039}
        outSlope: {x: -.00448911032, y: .000160932555, z: -.0368033201, w: -.00177294039}
        tangentMode: 0
      - time: .466666669
        value: {x: -.00467438437, y: .552023232, z: -.038392067, w: .83293128}
        inSlope: {x: -.00234960136, y: 8.58306958e-05, z: -.019260386, w: -.000951290247}
        outSlope: {x: -.00234960136, y: 8.58306958e-05, z: -.019260386, w: -.000951290247}
        tangentMode: 0
      - time: .5
        value: {x: -.00471494347, y: .552024722, z: -.0387245268, w: .83291471}
        inSlope: {x: 9.19157173e-06, y: -8.94047844e-07, z: 7.52089545e-05, w: 4.47011553e-06}
        outSlope: {x: 9.19157173e-06, y: -8.94047844e-07, z: 7.52089545e-05, w: 4.47011553e-06}
        tangentMode: 0
      - time: .533333361
        value: {x: -.00467377156, y: .552023172, z: -.0383870527, w: .832931578}
        inSlope: {x: .00238371338, y: -8.76187551e-05, z: .0195398759, w: .000963806291}
        outSlope: {x: .00238371338, y: -8.76187551e-05, z: .0195398759, w: .000963806291}
        tangentMode: 0
      - time: .566666722
        value: {x: -.0045560291, y: .552018881, z: -.0374218673, w: .832978964}
        inSlope: {x: .00455068517, y: -.00016182648, z: .0373086035, w: .00179529039}
        outSlope: {x: .00455068517, y: -.00016182648, z: .0373086035, w: .00179529039}
        tangentMode: 0
      - time: .600000083
        value: {x: -.0043703923, y: .552012384, z: -.0358998105, w: .833051264}
        inSlope: {x: .00645742659, y: -.000220835034, z: .0529527962, w: .00244617253}
        outSlope: {x: .00645742659, y: -.000220835034, z: .0529527962, w: .00244617253}
        tangentMode: 0
      - time: .633333445
        value: {x: -.00412553363, y: .552004158, z: -.0338916779, w: .833142042}
        inSlope: {x: .00810393877, y: -.000261962181, z: .0664729103, w: .00290035969}
        outSlope: {x: .00810393877, y: -.000261962181, z: .0664729103, w: .00290035969}
        tangentMode: 0
      - time: .666666806
        value: {x: -.00383012928, y: .55199492, z: -.0314682797, w: .833244622}
        inSlope: {x: .00949023478, y: -.000284313923, z: .0778684914, w: .00315785129}
        outSlope: {x: .00949023478, y: -.000284313923, z: .0778684914, w: .00315785129}
        tangentMode: 0
      - time: .700000167
        value: {x: -.00349285081, y: .551985204, z: -.0287004411, w: .833352566}
        inSlope: {x: .0106165092, y: -.00029057241, z: .0871385559, w: .00322490651}
        outSlope: {x: .0106165092, y: -.00029057241, z: .0871385559, w: .00322490651}
        tangentMode: 0
      - time: .733333528
        value: {x: -.00312236138, y: .551975548, z: -.0256590378, w: .833459616}
        inSlope: {x: .0114829876, y: -.000281631714, z: .0942815244, w: .00311940629}
        outSlope: {x: .0114829876, y: -.000281631714, z: .0942815244, w: .00311940629}
        tangentMode: 0
      - time: .766666889
        value: {x: -.00272731762, y: .551966429, z: -.0224150009, w: .833560526}
        inSlope: {x: .0120899696, y: -.000260174042, z: .0992959142, w: .00287264353}
        outSlope: {x: .0120899696, y: -.000260174042, z: .0992959142, w: .00287264353}
        tangentMode: 0
      - time: .80000025
        value: {x: -.00231636269, y: .551958203, z: -.0190393049, w: .833651125}
        inSlope: {x: .0124376509, y: -.000227093507, z: .102180123, w: .00251501589}
        outSlope: {x: .0124376509, y: -.000227093507, z: .102180123, w: .00251501589}
        tangentMode: 0
      - time: .833333611
        value: {x: -.00189814018, y: .551951289, z: -.0156029873, w: .833728194}
        inSlope: {x: .0125262411, y: -.000186860401, z: .102932841, w: .00208139257}
        outSlope: {x: .0125262411, y: -.000186860401, z: .102932841, w: .00208139257}
        tangentMode: 0
      - time: .866666973
        value: {x: -.00148127927, y: .551945746, z: -.0121771097, w: .833789885}
        inSlope: {x: .0123559767, y: -.00014483917, z: .101553157, w: .0016066418}
        outSlope: {x: .0123559767, y: -.00014483917, z: .101553157, w: .0016066418}
        tangentMode: 0
      - time: .900000334
        value: {x: -.00107440772, y: .551941633, z: -.00883277133, w: .833835304}
        inSlope: {x: .0119269211, y: -.000102817925, z: .0980406031, w: .00112920906}
        outSlope: {x: .0119269211, y: -.000102817925, z: .0980406031, w: .00112920906}
        tangentMode: 0
      - time: .933333695
        value: {x: -.00068615051, y: .551938891, z: -.00564106414, w: .833865166}
        inSlope: {x: .0112390406, y: -6.25848261e-05, z: .0923948884, w: .000687538995}
        outSlope: {x: .0112390406, y: -6.25848261e-05, z: .0923948884, w: .000687538995}
        tangentMode: 0
      - time: .966667056
        value: {x: -.000325137749, y: .551937461, z: -.0026731072, w: .83388114}
        inSlope: {x: .0102923065, y: -2.77161471e-05, z: .084616363, w: .000309347961}
        outSlope: {x: .0102923065, y: -2.77161471e-05, z: .084616363, w: .000309347961}
        tangentMode: 0
      - time: 1.00000036
        value: {x: 3.26509397e-09, y: .551937044, z: 2.68439688e-08, w: .833885789}
        inSlope: {x: .00970157143, y: 0, z: .0797611028, w: 1.78813934e-06}
        outSlope: {x: .00970157143, y: 0, z: .0797611028, w: 1.78813934e-06}
        tangentMode: 0
      - time: 1.03333366
        value: {x: .000321633066, y: .551937461, z: .00264429464, w: .833881259}
        inSlope: {x: .0100963544, y: 2.68221156e-05, z: .0830054581, w: -.000296831422}
        outSlope: {x: .0100963544, y: 2.68221156e-05, z: .0830054581, w: -.000296831422}
        tangentMode: 0
      - time: 1.06666696
        value: {x: .000673092902, y: .551938832, z: .0055337185, w: .833866}
        inSlope: {x: .0108839031, y: 5.81145869e-05, z: .0894756764, w: -.000651777431}
        outSlope: {x: .0108839031, y: 5.81145869e-05, z: .0894756764, w: -.000651777431}
        tangentMode: 0
      - time: 1.10000026
        value: {x: .0010472259, y: .551941335, z: .00860933401, w: .833837807}
        inSlope: {x: .0114567727, y: 9.56655422e-05, z: .0941767991, w: -.00105679128}
        outSlope: {x: .0114567727, y: 9.56655422e-05, z: .0941767991, w: -.00105679128}
        tangentMode: 0
      - time: 1.13333356
        value: {x: .00143687706, y: .55194521, z: .0118121654, w: .833795547}
        inSlope: {x: .011814991, y: .000135004651, z: .0971085727, w: -.0014886274}
        outSlope: {x: .011814991, y: .000135004651, z: .0971085727, w: -.0014886274}
        tangentMode: 0
      - time: 1.16666687
        value: {x: .00183489127, y: .551950336, z: .0150832329, w: .833738565}
        inSlope: {x: .0119585702, y: .000172555621, z: .0982711464, w: -.00192046352}
        outSlope: {x: .0119585702, y: .000172555621, z: .0982711464, w: -.00192046352}
        tangentMode: 0
      - time: 1.20000017
        value: {x: .00223411433, y: .551956713, z: .0183635689, w: .833667517}
        inSlope: {x: .0118874293, y: .000210106577, z: .0976648778, w: -.00231832499}
        outSlope: {x: .0118874293, y: .000210106577, z: .0976648778, w: -.00231832499}
        tangentMode: 0
      - time: 1.23333347
        value: {x: .00262738578, y: .551964343, z: .0215942189, w: .833584011}
        inSlope: {x: .0116014173, y: .000240504974, z: .095290482, w: -.00265717763}
        outSlope: {x: .0116014173, y: .000240504974, z: .095290482, w: -.00265717763}
        tangentMode: 0
      - time: 1.26666677
        value: {x: .00300754141, y: .551972747, z: .0247162618, w: .833490372}
        inSlope: {x: .0111003891, y: .000261962647, z: .0911490619, w: -.00290751737}
        outSlope: {x: .0111003891, y: .000261962647, z: .0911490619, w: -.00290751737}
        tangentMode: 0
      - time: 1.30000007
        value: {x: .00336741097, y: .551981807, z: .0276708174, w: .833390176}
        inSlope: {x: .0103841964, y: .000274479651, z: .0852416903, w: -.00304341596}
        outSlope: {x: .0103841964, y: .000274479651, z: .0852416903, w: -.00304341596}
        tangentMode: 0
      - time: 1.33333337
        value: {x: .00369982049, y: .551991045, z: .0303990357, w: .833287477}
        inSlope: {x: .00945258886, y: .000274479651, z: .0775696412, w: -.00304073375}
        outSlope: {x: .00945258886, y: .000274479651, z: .0775696412, w: -.00304073375}
        tangentMode: 0
      - time: 1.36666667
        value: {x: .00399758294, y: .552000105, z: .032842122, w: .833187461}
        inSlope: {x: .00830537081, y: .000260174507, z: .0681342632, w: -.00288248342}
        outSlope: {x: .00830537081, y: .000260174507, z: .0681342632, w: -.00288248342}
        tangentMode: 0
      - time: 1.39999998
        value: {x: .00425351132, y: .55200839, z: .0349413157, w: .833095312}
        inSlope: {x: .00694235973, y: .000231564263, z: .0569364205, w: -.00256240601}
        outSlope: {x: .00694235973, y: .000231564263, z: .0569364205, w: -.00256240601}
        tangentMode: 0
      - time: 1.43333328
        value: {x: .00446040649, y: .552015543, z: .0366378799, w: .833016634}
        inSlope: {x: .00536340335, y: .000187754806, z: .0439767018, w: -.0020751378}
        outSlope: {x: .00536340335, y: .000187754806, z: .0439767018, w: -.0020751378}
        tangentMode: 0
      - time: 1.46666658
        value: {x: .0046110712, y: .552020907, z: .037873093, w: .83295697}
        inSlope: {x: .00356864044, y: .000128746164, z: .029255271, w: -.00142604252}
        outSlope: {x: .00356864044, y: .000128746164, z: .029255271, w: -.00142604252}
        tangentMode: 0
      - time: 1.49999988
        value: {x: .00469831564, y: .552024126, z: .0385882296, w: .832921565}
        inSlope: {x: .00155808555, y: 5.72205136e-05, z: .012771518, w: -.000633896037}
        outSlope: {x: .00155808555, y: 5.72205136e-05, z: .012771518, w: -.000633896037}
        tangentMode: 0
      - time: 1.53333318
        value: {x: .00471494347, y: .552024722, z: .0387245268, w: .83291471}
        inSlope: {x: -.000719852513, y: -2.68221156e-05, z: -.00590025075, w: .000293255143}
        outSlope: {x: -.000719852513, y: -2.68221156e-05, z: -.00590025075, w: .000293255143}
        tangentMode: 0
      - time: 1.56666648
        value: {x: .00465032551, y: .552022338, z: .0381948799, w: .832941115}
        inSlope: {x: -.00314786867, y: -.00011444102, z: -.0258047748, w: .00126600382}
        outSlope: {x: -.00314786867, y: -.00011444102, z: -.0258047748, w: .00126600382}
        tangentMode: 0
      - time: 1.59999979
        value: {x: .00450508576, y: .552017093, z: .0370042101, w: .83299911}
        inSlope: {x: -.00542111276, y: -.000190437015, z: -.0444479883, w: .00211358257}
        outSlope: {x: -.00542111276, y: -.000190437015, z: -.0444479883, w: .00211358257}
        tangentMode: 0
      - time: 1.63333309
        value: {x: .00428891834, y: .552009642, z: .0352316834, w: .83308202}
        inSlope: {x: -.00740343519, y: -.000247657532, z: -.0607159957, w: .00275194901}
        outSlope: {x: -.00740343519, y: -.000247657532, z: -.0607159957, w: .00275194901}
        tangentMode: 0
      - time: 1.66666639
        value: {x: .00401152391, y: .552000582, z: .032956481, w: .833182573}
        inSlope: {x: -.00909470953, y: -.000286996656, z: -.0746088997, w: .00316500966}
        outSlope: {x: -.00909470953, y: -.000286996656, z: -.0746088997, w: .00316500966}
        tangentMode: 0
      - time: 1.69999969
        value: {x: .00368260499, y: .551990509, z: .0302577615, w: .833293021}
        inSlope: {x: -.0104950462, y: -.000303983979, z: -.0861260071, w: .00335634081}
        outSlope: {x: -.0104950462, y: -.000303983979, z: -.0861260071, w: .00335634081}
        tangentMode: 0
      - time: 1.73333299
        value: {x: .00331185479, y: .551980317, z: .0272147525, w: .833406329}
        inSlope: {x: -.0116047561, y: -.00030130177, z: -.0952657834, w: .00334292976}
        outSlope: {x: -.0116047561, y: -.00030130177, z: -.0952657834, w: .00334292976}
        tangentMode: 0
      - time: 1.76666629
        value: {x: .00290895533, y: .551970422, z: .0239067152, w: .833515882}
        inSlope: {x: -.0124241505, y: -.000283420377, z: -.102026634, w: .00314623397}
        outSlope: {x: -.0124241505, y: -.000283420377, z: -.102026634, w: .00314623397}
        tangentMode: 0
      - time: 1.79999959
        value: {x: .00248357886, y: .551961422, z: .0204129834, w: .833616078}
        inSlope: {x: -.0129534611, y: -.00025212788, z: -.106406376, w: .00280469935}
        outSlope: {x: -.0129534611, y: -.00025212788, z: -.106406376, w: .00280469935}
        tangentMode: 0
      - time: 1.8333329
        value: {x: .00204539206, y: .551953614, z: .0168129634, w: .833702862}
        inSlope: {x: -.0131930234, y: -.000212788786, z: -.108403429, w: .00235766405}
        outSlope: {x: -.0131930234, y: -.000212788786, z: -.108403429, w: .00235766405}
        tangentMode: 0
      - time: 1.8666662
        value: {x: .00160404481, y: .551947236, z: .0131860953, w: .833773255}
        inSlope: {x: -.0131430952, y: -.000167191189, z: -.108016528, w: .0018471498}
        outSlope: {x: -.0131430952, y: -.000167191189, z: -.108016528, w: .0018471498}
        tangentMode: 0
      - time: 1.8999995
        value: {x: .00116918655, y: .551942468, z: .0096118683, w: .833826005}
        inSlope: {x: -.0128037184, y: -.000119805452, z: -.105244778, w: .00131875405}
        outSlope: {x: -.0128037184, y: -.000119805452, z: -.105244778, w: .00131875405}
        tangentMode: 0
      - time: 1.9333328
        value: {x: .000750464387, y: .551939249, z: .00616978342, w: .833861172}
        inSlope: {x: -.0121749807, y: -7.42078555e-05, z: -.100087889, w: .000812710146}
        outSlope: {x: -.0121749807, y: -7.42078555e-05, z: -.100087889, w: .000812710146}
        tangentMode: 0
      - time: 1.9666661
        value: {x: .000357521931, y: .551937521, z: .00293934881, w: .833880186}
        inSlope: {x: -.0112568811, y: -3.30804833e-05, z: -.0925460458, w: .00036924961}
        outSlope: {x: -.0112568811, y: -3.30804833e-05, z: -.0925460458, w: .00036924961}
        tangentMode: 0
      - time: 2
        value: {x: 0, y: .551937044, z: 0, w: .833885789}
        inSlope: {x: -.0107254768, y: -1.43048728e-05, z: -.0881789699, w: .000168082246}
        outSlope: {x: -.0107254768, y: -1.43048728e-05, z: -.0881789699, w: .000168082246}
        tangentMode: 0
      m_PreInfinity: 2
      m_PostInfinity: 2
    path: 
  m_CompressedRotationCurves: []
  m_PositionCurves: []
  m_ScaleCurves: []
  m_FloatCurves: []
  m_PPtrCurves: []
  m_SampleRate: 30
  m_WrapMode: 0
  m_Bounds:
    m_Center: {x: 0, y: 0, z: 0}
    m_Extent: {x: 0, y: 0, z: 0}
  m_ClipBindingConstant:
    genericBindings:
    - path: 0
      attribute: 2
      script: {fileID: 0}
      classID: 4
      customType: 0
      isPPtrCurve: 0
    pptrCurveMapping: []
  m_AnimationClipSettings:
    serializedVersion: 2
    m_StartTime: 0
    m_StopTime: 2
    m_OrientationOffsetY: 0
    m_Level: 0
    m_CycleOffset: 0
    m_LoopTime: 1
    m_LoopBlend: 0
    m_LoopBlendOrientation: 0
    m_LoopBlendPositionY: 0
    m_LoopBlendPositionXZ: 0
    m_KeepOriginalOrientation: 0
    m_KeepOriginalPositionY: 1
    m_KeepOriginalPositionXZ: 0
    m_HeightFromFeet: 0
    m_Mirror: 0
  m_EditorCurves:
  - curve:
      serializedVersion: 2
      m_Curve:
      - time: 0
        value: 0
        inSlope: -.0100108068
        outSlope: -.0100108068
        tangentMode: 0
      - time: .0333333351
        value: -.000333693577
        inSlope: -.0105135459
        outSlope: -.0105135459
        tangentMode: 0
      - time: .0666666701
        value: -.000700903125
        inSlope: -.0113935163
        outSlope: -.0113935163
        tangentMode: 0
      - time: .100000009
        value: -.00109326141
        inSlope: -.0120225055
        outSlope: -.0120225055
        tangentMode: 0
      - time: .13333334
        value: -.00150240352
        inSlope: -.0124005657
        outSlope: -.0124005657
        tangentMode: 0
      - time: .166666672
        value: -.00191996573
        inSlope: -.0125276633
        outSlope: -.0125276633
        tangentMode: 0
      - time: .200000003
        value: -.00233758101
        inSlope: -.0124036875
        outSlope: -.0124036875
        tangentMode: 0
      - time: .233333334
        value: -.00274687819
        inSlope: -.0120284837
        outSlope: -.0120284837
        tangentMode: 0
      - time: .266666681
        value: -.00313948002
        inSlope: -.0114018731
        outSlope: -.0114018731
        tangentMode: 0
      - time: .300000012
        value: -.00350700319
        inSlope: -.0105235362
        outSlope: -.0105235362
        tangentMode: 0
      - time: .333333343
        value: -.00384104904
        inSlope: -.00939329248
        outSlope: -.00939329248
        tangentMode: 0
      - time: .366666675
        value: -.00413322262
        inSlope: -.00801092107
        outSlope: -.00801092107
        tangentMode: 0
      - time: .400000006
        value: -.00437511038
        inSlope: -.006376212
        outSlope: -.006376212
        tangentMode: 0
      - time: .433333337
        value: -.00455830339
        inSlope: -.00448911032
        outSlope: -.00448911032
        tangentMode: 0
      - time: .466666669
        value: -.00467438437
        inSlope: -.00234960136
        outSlope: -.00234960136
        tangentMode: 0
      - time: .5
        value: -.00471494347
        inSlope: 9.19157173e-06
        outSlope: 9.19157173e-06
        tangentMode: 0
      - time: .533333361
        value: -.00467377156
        inSlope: .00238371338
        outSlope: .00238371338
        tangentMode: 0
      - time: .566666722
        value: -.0045560291
        inSlope: .00455068517
        outSlope: .00455068517
        tangentMode: 0
      - time: .600000083
        value: -.0043703923
        inSlope: .00645742659
        outSlope: .00645742659
        tangentMode: 0
      - time: .633333445
        value: -.00412553363
        inSlope: .00810393877
        outSlope: .00810393877
        tangentMode: 0
      - time: .666666806
        value: -.00383012928
        inSlope: .00949023478
        outSlope: .00949023478
        tangentMode: 0
      - time: .700000167
        value: -.00349285081
        inSlope: .0106165092
        outSlope: .0106165092
        tangentMode: 0
      - time: .733333528
        value: -.00312236138
        inSlope: .0114829876
        outSlope: .0114829876
        tangentMode: 0
      - time: .766666889
        value: -.00272731762
        inSlope: .0120899696
        outSlope: .0120899696
        tangentMode: 0
      - time: .80000025
        value: -.00231636269
        inSlope: .0124376509
        outSlope: .0124376509
        tangentMode: 0
      - time: .833333611
        value: -.00189814018
        inSlope: .0125262411
        outSlope: .0125262411
        tangentMode: 0
      - time: .866666973
        value: -.00148127927
        inSlope: .0123559767
        outSlope: .0123559767
        tangentMode: 0
      - time: .900000334
        value: -.00107440772
        inSlope: .0119269211
        outSlope: .0119269211
        tangentMode: 0
      - time: .933333695
        value: -.00068615051
        inSlope: .0112390406
        outSlope: .0112390406
        tangentMode: 0
      - time: .966667056
        value: -.000325137749
        inSlope: .0102923065
        outSlope: .0102923065
        tangentMode: 0
      - time: 1.00000036
        value: 3.26509397e-09
        inSlope: .00970157143
        outSlope: .00970157143
        tangentMode: 0
      - time: 1.03333366
        value: .000321633066
        inSlope: .0100963544
        outSlope: .0100963544
        tangentMode: 0
      - time: 1.06666696
        value: .000673092902
        inSlope: .0108839031
        outSlope: .0108839031
        tangentMode: 0
      - time: 1.10000026
        value: .0010472259
        inSlope: .0114567727
        outSlope: .0114567727
        tangentMode: 0
      - time: 1.13333356
        value: .00143687706
        inSlope: .011814991
        outSlope: .011814991
        tangentMode: 0
      - time: 1.16666687
        value: .00183489127
        inSlope: .0119585702
        outSlope: .0119585702
        tangentMode: 0
      - time: 1.20000017
        value: .00223411433
        inSlope: .0118874293
        outSlope: .0118874293
        tangentMode: 0
      - time: 1.23333347
        value: .00262738578
        inSlope: .0116014173
        outSlope: .0116014173
        tangentMode: 0
      - time: 1.26666677
        value: .00300754141
        inSlope: .0111003891
        outSlope: .0111003891
        tangentMode: 0
      - time: 1.30000007
        value: .00336741097
        inSlope: .0103841964
        outSlope: .0103841964
        tangentMode: 0
      - time: 1.33333337
        value: .00369982049
        inSlope: .00945258886
        outSlope: .00945258886
        tangentMode: 0
      - time: 1.36666667
        value: .00399758294
        inSlope: .00830537081
        outSlope: .00830537081
        tangentMode: 0
      - time: 1.39999998
        value: .00425351132
        inSlope: .00694235973
        outSlope: .00694235973
        tangentMode: 0
      - time: 1.43333328
        value: .00446040649
        inSlope: .00536340335
        outSlope: .00536340335
        tangentMode: 0
      - time: 1.46666658
        value: .0046110712
        inSlope: .00356864044
        outSlope: .00356864044
        tangentMode: 0
      - time: 1.49999988
        value: .00469831564
        inSlope: .00155808555
        outSlope: .00155808555
        tangentMode: 0
      - time: 1.53333318
        value: .00471494347
        inSlope: -.000719852513
        outSlope: -.000719852513
        tangentMode: 0
      - time: 1.56666648
        value: .00465032551
        inSlope: -.00314786867
        outSlope: -.00314786867
        tangentMode: 0
      - time: 1.59999979
        value: .00450508576
        inSlope: -.00542111276
        outSlope: -.00542111276
        tangentMode: 0
      - time: 1.63333309
        value: .00428891834
        inSlope: -.00740343519
        outSlope: -.00740343519
        tangentMode: 0
      - time: 1.66666639
        value: .00401152391
        inSlope: -.00909470953
        outSlope: -.00909470953
        tangentMode: 0
      - time: 1.69999969
        value: .00368260499
        inSlope: -.0104950462
        outSlope: -.0104950462
        tangentMode: 0
      - time: 1.73333299
        value: .00331185479
        inSlope: -.0116047561
        outSlope: -.0116047561
        tangentMode: 0
      - time: 1.76666629
        value: .00290895533
        inSlope: -.0124241505
        outSlope: -.0124241505
        tangentMode: 0
      - time: 1.79999959
        value: .00248357886
        inSlope: -.0129534611
        outSlope: -.0129534611
        tangentMode: 0
      - time: 1.8333329
        value: .00204539206
        inSlope: -.0131930234
        outSlope: -.0131930234
        tangentMode: 0
      - time: 1.8666662
        value: .00160404481
        inSlope: -.0131430952
        outSlope: -.0131430952
        tangentMode: 0
      - time: 1.8999995
        value: .00116918655
        inSlope: -.0128037184
        outSlope: -.0128037184
        tangentMode: 0
      - time: 1.9333328
        value: .000750464387
        inSlope: -.0121749807
        outSlope: -.0121749807
        tangentMode: 0
      - time: 1.9666661
        value: .000357521931
        inSlope: -.0112568811
        outSlope: -.0112568811
        tangentMode: 0
      - time: 2
        value: 0
        inSlope: -.0107254768
        outSlope: -.0107254768
        tangentMode: 0
      m_PreInfinity: 2
      m_PostInfinity: 2
    attribute: m_LocalRotation.x
    path: 
    classID: 4
    script: {fileID: 0}
  - curve:
      serializedVersion: 2
      m_Curve:
      - time: 0
        value: .551937044
        inSlope: 1.43051138e-05
        outSlope: 1.43051138e-05
        tangentMode: 0
      - time: .0333333351
        value: .551937521
        inSlope: 2.95042973e-05
        outSlope: 2.95042973e-05
        tangentMode: 0
      - time: .0666666701
        value: .551939011
        inSlope: 6.34789394e-05
        outSlope: 6.34789394e-05
        tangentMode: 0
      - time: .100000009
        value: .551941752
        inSlope: .000103712082
        outSlope: .000103712082
        tangentMode: 0
      - time: .13333334
        value: .551945925
        inSlope: .00014752151
        outSlope: .00014752151
        tangentMode: 0
      - time: .166666672
        value: .551951587
        inSlope: .000190436855
        outSlope: .000190436855
        tangentMode: 0
      - time: .200000003
        value: .551958621
        inSlope: .000228881865
        outSlope: .000228881865
        tangentMode: 0
      - time: .233333334
        value: .551966846
        inSlope: .000259280147
        outSlope: .000259280147
        tangentMode: 0
      - time: .266666681
        value: .551975906
        inSlope: .000280737819
        outSlope: .000280737819
        tangentMode: 0
      - time: .300000012
        value: .551985562
        inSlope: .000289678603
        outSlope: .000289678603
        tangentMode: 0
      - time: .333333343
        value: .551995218
        inSlope: .000282526045
        outSlope: .000282526045
        tangentMode: 0
      - time: .366666675
        value: .552004397
        inSlope: .000259280234
        outSlope: .000259280234
        tangentMode: 0
      - time: .400000006
        value: .552012503
        inSlope: .000219047084
        outSlope: .000219047084
        tangentMode: 0
      - time: .433333337
        value: .552019
        inSlope: .000160932555
        outSlope: .000160932555
        tangentMode: 0
      - time: .466666669
        value: .552023232
        inSlope: 8.58306958e-05
        outSlope: 8.58306958e-05
        tangentMode: 0
      - time: .5
        value: .552024722
        inSlope: -8.94047844e-07
        outSlope: -8.94047844e-07
        tangentMode: 0
      - time: .533333361
        value: .552023172
        inSlope: -8.76187551e-05
        outSlope: -8.76187551e-05
        tangentMode: 0
      - time: .566666722
        value: .552018881
        inSlope: -.00016182648
        outSlope: -.00016182648
        tangentMode: 0
      - time: .600000083
        value: .552012384
        inSlope: -.000220835034
        outSlope: -.000220835034
        tangentMode: 0
      - time: .633333445
        value: .552004158
        inSlope: -.000261962181
        outSlope: -.000261962181
        tangentMode: 0
      - time: .666666806
        value: .55199492
        inSlope: -.000284313923
        outSlope: -.000284313923
        tangentMode: 0
      - time: .700000167
        value: .551985204
        inSlope: -.00029057241
        outSlope: -.00029057241
        tangentMode: 0
      - time: .733333528
        value: .551975548
        inSlope: -.000281631714
        outSlope: -.000281631714
        tangentMode: 0
      - time: .766666889
        value: .551966429
        inSlope: -.000260174042
        outSlope: -.000260174042
        tangentMode: 0
      - time: .80000025
        value: .551958203
        inSlope: -.000227093507
        outSlope: -.000227093507
        tangentMode: 0
      - time: .833333611
        value: .551951289
        inSlope: -.000186860401
        outSlope: -.000186860401
        tangentMode: 0
      - time: .866666973
        value: .551945746
        inSlope: -.00014483917
        outSlope: -.00014483917
        tangentMode: 0
      - time: .900000334
        value: .551941633
        inSlope: -.000102817925
        outSlope: -.000102817925
        tangentMode: 0
      - time: .933333695
        value: .551938891
        inSlope: -6.25848261e-05
        outSlope: -6.25848261e-05
        tangentMode: 0
      - time: .966667056
        value: .551937461
        inSlope: -2.77161471e-05
        outSlope: -2.77161471e-05
        tangentMode: 0
      - time: 1.00000036
        value: .551937044
        inSlope: 0
        outSlope: 0
        tangentMode: 0
      - time: 1.03333366
        value: .551937461
        inSlope: 2.68221156e-05
        outSlope: 2.68221156e-05
        tangentMode: 0
      - time: 1.06666696
        value: .551938832
        inSlope: 5.81145869e-05
        outSlope: 5.81145869e-05
        tangentMode: 0
      - time: 1.10000026
        value: .551941335
        inSlope: 9.56655422e-05
        outSlope: 9.56655422e-05
        tangentMode: 0
      - time: 1.13333356
        value: .55194521
        inSlope: .000135004651
        outSlope: .000135004651
        tangentMode: 0
      - time: 1.16666687
        value: .551950336
        inSlope: .000172555621
        outSlope: .000172555621
        tangentMode: 0
      - time: 1.20000017
        value: .551956713
        inSlope: .000210106577
        outSlope: .000210106577
        tangentMode: 0
      - time: 1.23333347
        value: .551964343
        inSlope: .000240504974
        outSlope: .000240504974
        tangentMode: 0
      - time: 1.26666677
        value: .551972747
        inSlope: .000261962647
        outSlope: .000261962647
        tangentMode: 0
      - time: 1.30000007
        value: .551981807
        inSlope: .000274479651
        outSlope: .000274479651
        tangentMode: 0
      - time: 1.33333337
        value: .551991045
        inSlope: .000274479651
        outSlope: .000274479651
        tangentMode: 0
      - time: 1.36666667
        value: .552000105
        inSlope: .000260174507
        outSlope: .000260174507
        tangentMode: 0
      - time: 1.39999998
        value: .55200839
        inSlope: .000231564263
        outSlope: .000231564263
        tangentMode: 0
      - time: 1.43333328
        value: .552015543
        inSlope: .000187754806
        outSlope: .000187754806
        tangentMode: 0
      - time: 1.46666658
        value: .552020907
        inSlope: .000128746164
        outSlope: .000128746164
        tangentMode: 0
      - time: 1.49999988
        value: .552024126
        inSlope: 5.72205136e-05
        outSlope: 5.72205136e-05
        tangentMode: 0
      - time: 1.53333318
        value: .552024722
        inSlope: -2.68221156e-05
        outSlope: -2.68221156e-05
        tangentMode: 0
      - time: 1.56666648
        value: .552022338
        inSlope: -.00011444102
        outSlope: -.00011444102
        tangentMode: 0
      - time: 1.59999979
        value: .552017093
        inSlope: -.000190437015
        outSlope: -.000190437015
        tangentMode: 0
      - time: 1.63333309
        value: .552009642
        inSlope: -.000247657532
        outSlope: -.000247657532
        tangentMode: 0
      - time: 1.66666639
        value: .552000582
        inSlope: -.000286996656
        outSlope: -.000286996656
        tangentMode: 0
      - time: 1.69999969
        value: .551990509
        inSlope: -.000303983979
        outSlope: -.000303983979
        tangentMode: 0
      - time: 1.73333299
        value: .551980317
        inSlope: -.00030130177
        outSlope: -.00030130177
        tangentMode: 0
      - time: 1.76666629
        value: .551970422
        inSlope: -.000283420377
        outSlope: -.000283420377
        tangentMode: 0
      - time: 1.79999959
        value: .551961422
        inSlope: -.00025212788
        outSlope: -.00025212788
        tangentMode: 0
      - time: 1.8333329
        value: .551953614
        inSlope: -.000212788786
        outSlope: -.000212788786
        tangentMode: 0
      - time: 1.8666662
        value: .551947236
        inSlope: -.000167191189
        outSlope: -.000167191189
        tangentMode: 0
      - time: 1.8999995
        value: .551942468
        inSlope: -.000119805452
        outSlope: -.000119805452
        tangentMode: 0
      - time: 1.9333328
        value: .551939249
        inSlope: -7.42078555e-05
        outSlope: -7.42078555e-05
        tangentMode: 0
      - time: 1.9666661
        value: .551937521
        inSlope: -3.30804833e-05
        outSlope: -3.30804833e-05
        tangentMode: 0
      - time: 2
        value: .551937044
        inSlope: -1.43048728e-05
        outSlope: -1.43048728e-05
        tangentMode: 0
      m_PreInfinity: 2
      m_PostInfinity: 2
    attribute: m_LocalRotation.y
    path: 
    classID: 4
    script: {fileID: 0}
  - curve:
      serializedVersion: 2
      m_Curve:
      - time: 0
        value: 0
        inSlope: -.0823034048
        outSlope: -.0823034048
        tangentMode: 0
      - time: .0333333351
        value: -.00274344697
        inSlope: -.0864351466
        outSlope: -.0864351466
        tangentMode: 0
      - time: .0666666701
        value: -.00576234329
        inSlope: -.0936646163
        outSlope: -.0936646163
        tangentMode: 0
      - time: .100000009
        value: -.00898775551
        inSlope: -.0988259017
        outSlope: -.0988259017
        tangentMode: 0
      - time: .13333334
        value: -.0123507371
        inSlope: -.101918682
        outSlope: -.101918682
        tangentMode: 0
      - time: .166666672
        value: -.0157823339
        inSlope: -.102943122
        outSlope: -.102943122
        tangentMode: 0
      - time: .200000003
        value: -.0192136113
        inSlope: -.101899832
        outSlope: -.101899832
        tangentMode: 0
      - time: .233333334
        value: -.022575656
        inSlope: -.0987897068
        outSlope: -.0987897068
        tangentMode: 0
      - time: .266666681
        value: -.025799593
        inSlope: -.0936140791
        outSlope: -.0936140791
        tangentMode: 0
      - time: .300000012
        value: -.0288165957
        inSlope: -.0863744318
        outSlope: -.0863744318
        tangentMode: 0
      - time: .333333343
        value: -.0315578878
        inSlope: -.0770724416
        outSlope: -.0770724416
        tangentMode: 0
      - time: .366666675
        value: -.0339547582
        inSlope: -.0657093748
        outSlope: -.0657093748
        tangentMode: 0
      - time: .400000006
        value: -.0359385125
        inSlope: -.0522861481
        outSlope: -.0522861481
        tangentMode: 0
      - time: .433333337
        value: -.0374405012
        inSlope: -.0368033201
        outSlope: -.0368033201
        tangentMode: 0
      - time: .466666669
        value: -.038392067
        inSlope: -.019260386
        outSlope: -.019260386
        tangentMode: 0
      - time: .5
        value: -.0387245268
        inSlope: 7.52089545e-05
        outSlope: 7.52089545e-05
        tangentMode: 0
      - time: .533333361
        value: -.0383870527
        inSlope: .0195398759
        outSlope: .0195398759
        tangentMode: 0
      - time: .566666722
        value: -.0374218673
        inSlope: .0373086035
        outSlope: .0373086035
        tangentMode: 0
      - time: .600000083
        value: -.0358998105
        inSlope: .0529527962
        outSlope: .0529527962
        tangentMode: 0
      - time: .633333445
        value: -.0338916779
        inSlope: .0664729103
        outSlope: .0664729103
        tangentMode: 0
      - time: .666666806
        value: -.0314682797
        inSlope: .0778684914
        outSlope: .0778684914
        tangentMode: 0
      - time: .700000167
        value: -.0287004411
        inSlope: .0871385559
        outSlope: .0871385559
        tangentMode: 0
      - time: .733333528
        value: -.0256590378
        inSlope: .0942815244
        outSlope: .0942815244
        tangentMode: 0
      - time: .766666889
        value: -.0224150009
        inSlope: .0992959142
        outSlope: .0992959142
        tangentMode: 0
      - time: .80000025
        value: -.0190393049
        inSlope: .102180123
        outSlope: .102180123
        tangentMode: 0
      - time: .833333611
        value: -.0156029873
        inSlope: .102932841
        outSlope: .102932841
        tangentMode: 0
      - time: .866666973
        value: -.0121771097
        inSlope: .101553157
        outSlope: .101553157
        tangentMode: 0
      - time: .900000334
        value: -.00883277133
        inSlope: .0980406031
        outSlope: .0980406031
        tangentMode: 0
      - time: .933333695
        value: -.00564106414
        inSlope: .0923948884
        outSlope: .0923948884
        tangentMode: 0
      - time: .966667056
        value: -.0026731072
        inSlope: .084616363
        outSlope: .084616363
        tangentMode: 0
      - time: 1.00000036
        value: 2.68439688e-08
        inSlope: .0797611028
        outSlope: .0797611028
        tangentMode: 0
      - time: 1.03333366
        value: .00264429464
        inSlope: .0830054581
        outSlope: .0830054581
        tangentMode: 0
      - time: 1.06666696
        value: .0055337185
        inSlope: .0894756764
        outSlope: .0894756764
        tangentMode: 0
      - time: 1.10000026
        value: .00860933401
        inSlope: .0941767991
        outSlope: .0941767991
        tangentMode: 0
      - time: 1.13333356
        value: .0118121654
        inSlope: .0971085727
        outSlope: .0971085727
        tangentMode: 0
      - time: 1.16666687
        value: .0150832329
        inSlope: .0982711464
        outSlope: .0982711464
        tangentMode: 0
      - time: 1.20000017
        value: .0183635689
        inSlope: .0976648778
        outSlope: .0976648778
        tangentMode: 0
      - time: 1.23333347
        value: .0215942189
        inSlope: .095290482
        outSlope: .095290482
        tangentMode: 0
      - time: 1.26666677
        value: .0247162618
        inSlope: .0911490619
        outSlope: .0911490619
        tangentMode: 0
      - time: 1.30000007
        value: .0276708174
        inSlope: .0852416903
        outSlope: .0852416903
        tangentMode: 0
      - time: 1.33333337
        value: .0303990357
        inSlope: .0775696412
        outSlope: .0775696412
        tangentMode: 0
      - time: 1.36666667
        value: .032842122
        inSlope: .0681342632
        outSlope: .0681342632
        tangentMode: 0
      - time: 1.39999998
        value: .0349413157
        inSlope: .0569364205
        outSlope: .0569364205
        tangentMode: 0
      - time: 1.43333328
        value: .0366378799
        inSlope: .0439767018
        outSlope: .0439767018
        tangentMode: 0
      - time: 1.46666658
        value: .037873093
        inSlope: .029255271
        outSlope: .029255271
        tangentMode: 0
      - time: 1.49999988
        value: .0385882296
        inSlope: .012771518
        outSlope: .012771518
        tangentMode: 0
      - time: 1.53333318
        value: .0387245268
        inSlope: -.00590025075
        outSlope: -.00590025075
        tangentMode: 0
      - time: 1.56666648
        value: .0381948799
        inSlope: -.0258047748
        outSlope: -.0258047748
        tangentMode: 0
      - time: 1.59999979
        value: .0370042101
        inSlope: -.0444479883
        outSlope: -.0444479883
        tangentMode: 0
      - time: 1.63333309
        value: .0352316834
        inSlope: -.0607159957
        outSlope: -.0607159957
        tangentMode: 0
      - time: 1.66666639
        value: .032956481
        inSlope: -.0746088997
        outSlope: -.0746088997
        tangentMode: 0
      - time: 1.69999969
        value: .0302577615
        inSlope: -.0861260071
        outSlope: -.0861260071
        tangentMode: 0
      - time: 1.73333299
        value: .0272147525
        inSlope: -.0952657834
        outSlope: -.0952657834
        tangentMode: 0
      - time: 1.76666629
        value: .0239067152
        inSlope: -.102026634
        outSlope: -.102026634
        tangentMode: 0
      - time: 1.79999959
        value: .0204129834
        inSlope: -.106406376
        outSlope: -.106406376
        tangentMode: 0
      - time: 1.8333329
        value: .0168129634
        inSlope: -.108403429
        outSlope: -.108403429
        tangentMode: 0
      - time: 1.8666662
        value: .0131860953
        inSlope: -.108016528
        outSlope: -.108016528
        tangentMode: 0
      - time: 1.8999995
        value: .0096118683
        inSlope: -.105244778
        outSlope: -.105244778
        tangentMode: 0
      - time: 1.9333328
        value: .00616978342
        inSlope: -.100087889
        outSlope: -.100087889
        tangentMode: 0
      - time: 1.9666661
        value: .00293934881
        inSlope: -.0925460458
        outSlope: -.0925460458
        tangentMode: 0
      - time: 2
        value: 0
        inSlope: -.0881789699
        outSlope: -.0881789699
        tangentMode: 0
      m_PreInfinity: 2
      m_PostInfinity: 2
    attribute: m_LocalRotation.z
    path: 
    classID: 4
    script: {fileID: 0}
  - curve:
      serializedVersion: 2
      m_Curve:
      - time: 0
        value: .833885789
        inSlope: -.000146627412
        outSlope: -.000146627412
        tangentMode: 0
      - time: .0333333351
        value: .833880901
        inSlope: -.000322759151
        outSlope: -.000322759151
        tangentMode: 0
      - time: .0666666701
        value: .833864272
        inSlope: -.000711679342
        outSlope: -.000711679342
        tangentMode: 0
      - time: .100000009
        value: .833833456
        inSlope: -.00115782022
        outSlope: -.00115782022
        tangentMode: 0
      - time: .13333334
        value: .833787084
        inSlope: -.00163346541
        outSlope: -.00163346541
        tangentMode: 0
      - time: .166666672
        value: .833724558
        inSlope: -.00210464024
        outSlope: -.00210464024
        tangentMode: 0
      - time: .200000003
        value: .833646774
        inSlope: -.0025302174
        outSlope: -.0025302174
        tangentMode: 0
      - time: .233333334
        value: .833555877
        inSlope: -.00287890388
        outSlope: -.00287890388
        tangentMode: 0
      - time: .266666681
        value: .833454847
        inSlope: -.00311493827
        outSlope: -.00311493827
        tangentMode: 0
      - time: .300000012
        value: .833348215
        inSlope: -.00320792221
        outSlope: -.00320792221
        tangentMode: 0
      - time: .333333343
        value: .833240986
        inSlope: -.00313371443
        outSlope: -.00313371443
        tangentMode: 0
      - time: .366666675
        value: .8331393
        inSlope: -.00287264609
        outSlope: -.00287264609
        tangentMode: 0
      - time: .400000006
        value: .833049476
        inSlope: -.00241756462
        outSlope: -.00241756462
        tangentMode: 0
      - time: .433333337
        value: .832978129
        inSlope: -.00177294039
        outSlope: -.00177294039
        tangentMode: 0
      - time: .466666669
        value: .83293128
        inSlope: -.000951290247
        outSlope: -.000951290247
        tangentMode: 0
      - time: .5
        value: .83291471
        inSlope: 4.47011553e-06
        outSlope: 4.47011553e-06
        tangentMode: 0
      - time: .533333361
        value: .832931578
        inSlope: .000963806291
        outSlope: .000963806291
        tangentMode: 0
      - time: .566666722
        value: .832978964
        inSlope: .00179529039
        outSlope: .00179529039
        tangentMode: 0
      - time: .600000083
        value: .833051264
        inSlope: .00244617253
        outSlope: .00244617253
        tangentMode: 0
      - time: .633333445
        value: .833142042
        inSlope: .00290035969
        outSlope: .00290035969
        tangentMode: 0
      - time: .666666806
        value: .833244622
        inSlope: .00315785129
        outSlope: .00315785129
        tangentMode: 0
      - time: .700000167
        value: .833352566
        inSlope: .00322490651
        outSlope: .00322490651
        tangentMode: 0
      - time: .733333528
        value: .833459616
        inSlope: .00311940629
        outSlope: .00311940629
        tangentMode: 0
      - time: .766666889
        value: .833560526
        inSlope: .00287264353
        outSlope: .00287264353
        tangentMode: 0
      - time: .80000025
        value: .833651125
        inSlope: .00251501589
        outSlope: .00251501589
        tangentMode: 0
      - time: .833333611
        value: .833728194
        inSlope: .00208139257
        outSlope: .00208139257
        tangentMode: 0
      - time: .866666973
        value: .833789885
        inSlope: .0016066418
        outSlope: .0016066418
        tangentMode: 0
      - time: .900000334
        value: .833835304
        inSlope: .00112920906
        outSlope: .00112920906
        tangentMode: 0
      - time: .933333695
        value: .833865166
        inSlope: .000687538995
        outSlope: .000687538995
        tangentMode: 0
      - time: .966667056
        value: .83388114
        inSlope: .000309347961
        outSlope: .000309347961
        tangentMode: 0
      - time: 1.00000036
        value: .833885789
        inSlope: 1.78813934e-06
        outSlope: 1.78813934e-06
        tangentMode: 0
      - time: 1.03333366
        value: .833881259
        inSlope: -.000296831422
        outSlope: -.000296831422
        tangentMode: 0
      - time: 1.06666696
        value: .833866
        inSlope: -.000651777431
        outSlope: -.000651777431
        tangentMode: 0
      - time: 1.10000026
        value: .833837807
        inSlope: -.00105679128
        outSlope: -.00105679128
        tangentMode: 0
      - time: 1.13333356
        value: .833795547
        inSlope: -.0014886274
        outSlope: -.0014886274
        tangentMode: 0
      - time: 1.16666687
        value: .833738565
        inSlope: -.00192046352
        outSlope: -.00192046352
        tangentMode: 0
      - time: 1.20000017
        value: .833667517
        inSlope: -.00231832499
        outSlope: -.00231832499
        tangentMode: 0
      - time: 1.23333347
        value: .833584011
        inSlope: -.00265717763
        outSlope: -.00265717763
        tangentMode: 0
      - time: 1.26666677
        value: .833490372
        inSlope: -.00290751737
        outSlope: -.00290751737
        tangentMode: 0
      - time: 1.30000007
        value: .833390176
        inSlope: -.00304341596
        outSlope: -.00304341596
        tangentMode: 0
      - time: 1.33333337
        value: .833287477
        inSlope: -.00304073375
        outSlope: -.00304073375
        tangentMode: 0
      - time: 1.36666667
        value: .833187461
        inSlope: -.00288248342
        outSlope: -.00288248342
        tangentMode: 0
      - time: 1.39999998
        value: .833095312
        inSlope: -.00256240601
        outSlope: -.00256240601
        tangentMode: 0
      - time: 1.43333328
        value: .833016634
        inSlope: -.0020751378
        outSlope: -.0020751378
        tangentMode: 0
      - time: 1.46666658
        value: .83295697
        inSlope: -.00142604252
        outSlope: -.00142604252
        tangentMode: 0
      - time: 1.49999988
        value: .832921565
        inSlope: -.000633896037
        outSlope: -.000633896037
        tangentMode: 0
      - time: 1.53333318
        value: .83291471
        inSlope: .000293255143
        outSlope: .000293255143
        tangentMode: 0
      - time: 1.56666648
        value: .832941115
        inSlope: .00126600382
        outSlope: .00126600382
        tangentMode: 0
      - time: 1.59999979
        value: .83299911
        inSlope: .00211358257
        outSlope: .00211358257
        tangentMode: 0
      - time: 1.63333309
        value: .83308202
        inSlope: .00275194901
        outSlope: .00275194901
        tangentMode: 0
      - time: 1.66666639
        value: .833182573
        inSlope: .00316500966
        outSlope: .00316500966
        tangentMode: 0
      - time: 1.69999969
        value: .833293021
        inSlope: .00335634081
        outSlope: .00335634081
        tangentMode: 0
      - time: 1.73333299
        value: .833406329
        inSlope: .00334292976
        outSlope: .00334292976
        tangentMode: 0
      - time: 1.76666629
        value: .833515882
        inSlope: .00314623397
        outSlope: .00314623397
        tangentMode: 0
      - time: 1.79999959
        value: .833616078
        inSlope: .00280469935
        outSlope: .00280469935
        tangentMode: 0
      - time: 1.8333329
        value: .833702862
        inSlope: .00235766405
        outSlope: .00235766405
        tangentMode: 0
      - time: 1.8666662
        value: .833773255
        inSlope: .0018471498
        outSlope: .0018471498
        tangentMode: 0
      - time: 1.8999995
        value: .833826005
        inSlope: .00131875405
        outSlope: .00131875405
        tangentMode: 0
      - time: 1.9333328
        value: .833861172
        inSlope: .000812710146
        outSlope: .000812710146
        tangentMode: 0
      - time: 1.9666661
        value: .833880186
        inSlope: .00036924961
        outSlope: .00036924961
        tangentMode: 0
      - time: 2
        value: .833885789
        inSlope: .000168082246
        outSlope: .000168082246
        tangentMode: 0
      m_PreInfinity: 2
      m_PostInfinity: 2
    attribute: m_LocalRotation.w
    path: 
    classID: 4
    script: {fileID: 0}
  m_EulerEditorCurves:
  - curve:
      serializedVersion: 2
      m_Curve:
      - time: 0
        value: 0
        inSlope: 4
        outSlope: 4
        tangentMode: 10
      - time: .5
        value: 2
        inSlope: 0
        outSlope: 0
        tangentMode: 10
      - time: 1
        value: 0
        inSlope: -3.875
        outSlope: -3.875
        tangentMode: 10
      - time: 1.5333333
        value: -2
        inSlope: .267856956
        outSlope: .267856956
        tangentMode: 10
      - time: 2
        value: 0
        inSlope: 4.28571415
        outSlope: 4.28571415
        tangentMode: 10
      m_PreInfinity: 2
      m_PostInfinity: 2
    attribute: localEulerAnglesBaked.x
    path: 
    classID: 4
    script: {fileID: 0}
  - curve:
      serializedVersion: 2
      m_Curve:
      - time: 0
        value: 67
        inSlope: 0
        outSlope: 0
        tangentMode: 10
      - time: 2
        value: 67
        inSlope: 0
        outSlope: 0
        tangentMode: 10
      m_PreInfinity: 2
      m_PostInfinity: 2
    attribute: localEulerAnglesBaked.y
    path: 
    classID: 4
    script: {fileID: 0}
  - curve:
      serializedVersion: 2
      m_Curve:
      - time: 0
        value: 0
        inSlope: -8
        outSlope: -8
        tangentMode: 10
      - time: .5
        value: -4
        inSlope: 0
        outSlope: 0
        tangentMode: 10
      - time: 1
        value: 0
        inSlope: 7.75
        outSlope: 7.75
        tangentMode: 10
      - time: 1.5333333
        value: 4
        inSlope: -.535713911
        outSlope: -.535713911
        tangentMode: 10
      - time: 2
        value: 0
        inSlope: -8.5714283
        outSlope: -8.5714283
        tangentMode: 10
      m_PreInfinity: 2
      m_PostInfinity: 2
    attribute: localEulerAnglesBaked.z
    path: 
    classID: 4
    script: {fileID: 0}
  m_HasGenericRootTransform: 1
  m_HasMotionFloatCurves: 0
  m_GenerateMotionCurves: 0
  m_Events: []
