%YAML 1.1
%TAG !u! tag:unity3d.com,2011:
--- !u!221 &22100000
AnimatorOverrideController:
  m_ObjectHideFlags: 0
  m_PrefabParentObject: {fileID: 0}
  m_PrefabInternal: {fileID: 0}
  m_Name: Wall2Override
  m_Controller: {fileID: 9100000, guid: 5f2fe88c56922ba4e8dbce50dcf893b1, type: 2}
  m_Clips:
  - m_OriginalClip: {fileID: 7400000, guid: bdc816d9770b9df4881bb604943b62a2, type: 2}
    m_OverrideClip: {fileID: 7400000, guid: 6876cda750b4af042b9ea618b852aa90, type: 2}
